{
  "type": "service_account",
  "project_id": "devops1915",
  "private_key_id": "791af36b298dd53d5559c4bad859ec776242a71c",
  "private_key": "-----BEGIN PRIVATE KEY-----\nMIIEvQIBADANBgkqhkiG9w0BAQEFAASCBKcwggSjAgEAAoIBAQDS9MLsJh4Aofxv\naqnIBt8438pI6PX6Bway4NaVj2icn2rlSyiH4TCjLENd/l/+fAkHxh7IkqgDmD3Z\nLsoOLuTwdR4eyFKe7DVroo6K2iDCjBaJ4jqa/wn8FOm2uKpN4K9lsf80yA/cOEyO\n+wCOCxPsOZQ9Vam7St0Qv0rv7rTmaTfW5qL59b01KfQkBNPKLQWu7MoWfN6R/0Ms\noylo9T7NUOIRvPGCQh71XgAxi6FtEUQfnbuTfNvoGkUVTVviOivXduY94m9ViDdH\nsdspXEXIyMMI0hLBwN68tFI97lwfVpY/eTesTTzo0iZRqqpeqBoCr8gSJF/4oyUI\nxz2L8VaZAgMBAAECggEATtNfnI73qgPdSCKik1giA+X3d7v44bbLZX7HH/aIv/F/\np3Moj3FxU5+AArjA1N4zH6EDsq2+My2peqRVouwZ5tHUcesnmDOqGHCS88Zi9F8V\nMuuCO5Vt/TAxTnH9TQFWeNkEhAv3hTHSRaD7yZfRF3VCc5K1TANCzHW2QiY/mVJs\n8IVhNS2VUBfsn9HZG6tsFRvks7xrN6Aob6mKdj+lIt7JUkOpzlqBsbzRuDK8/sIf\nUj0e10QNeOopcXfj5JyAhb4mfF+ftz7PDzRsdZj2XrHi6Ktig9M4KecXb6w67bP5\nSJSRZtlEmU2F+s+iYiXMs76275dc3t5GcjAHdyWWuwKBgQDtqN1f24zFejUa3PHj\n/GycX1wZChDeG7KO3GMMPXZNBL1kt1dewuOwyGnFstXgDcb+8v7Nh7aQzIJ5EFb5\nwKyC6CC2V2s3TyUrl971Sl8Kk/LXnb+31597xWkyKIp/twc8/4nBbKNMRzS3dk5G\n4u07NffJoKqZmJXisEKbwzejfwKBgQDjPFl076mVUMjHMfEVI7wIpguUOc5g6252\n63BKFP4mCChQfV7TE0oWLBdoAXpkFO+E6cDOCuh0Rok/It9sPW4DvBxel6Bmp+eH\noME1T1aB/5tjIAfXgcxVeVZOtIMd9ZGxwcuNkSO/y5SwzT3h03evS/gzJgg2+Lqy\nQUja5E6x5wKBgQDtRJqGufVHrmNYR19Dgt6YG2giI3eFl1dj40kLjk0ORX4kEBqt\nI5sYAm3/DzURdA/ItqaGYUh2NYbJAPQkciSIqOEHyizjUiPE6uGQOEi8kcpvUzF1\nhFLXydXlWq4zJXKXhnNsZV5+p9RMmVM62BGJ/K4+YSYRJFH3uIs3YOWqVwKBgEt6\nu1g9V34ylE6eRy83bHkO9p+ox+WnrkywDd99s6Hcac+6pSnFqYFN6gRxIT9nONxU\nbOfD9czRtTsUkVQ533Y8IMxG30/aC+0gN61GijyqM+osNI6gHchygnmoOjlUXa3G\n6p8+i7pknCJSOnDttj6zJGGRC39/BTy6tMGIvp8XAoGAbh8739GHhmns17lX1pve\n7FAffTYdbz8k3pIBaIQPaG4VUxArsQXdtsM7cwfJdQnTEpOoDFPomxcCEoCrDj2A\nPPxZT85eR/OpM6+2Xocx/kjWCn8CxhcdZhaR/lqnBRilbb02Gcs/G2lJv1x583ri\nSePX+yyFlo2udYRmioj4B4o=\n-----END PRIVATE KEY-----\n",
  "client_email": "kanna-616@devops1915.iam.gserviceaccount.com",
  "client_id": "110036330362830087224",
  "auth_uri": "https://accounts.google.com/o/oauth2/auth",
  "token_uri": "https://oauth2.googleapis.com/token",
  "auth_provider_x509_cert_url": "https://www.googleapis.com/oauth2/v1/certs",
  "client_x509_cert_url": "https://www.googleapis.com/robot/v1/metadata/x509/kanna-616%40devops1915.iam.gserviceaccount.com"
}
